{
    "server": {
        "port": 7954
    },
    "repos": [
        {
            "path": "git-sync-repo-1",
            "git_from": "git@bitbucket/repo-1.git",
            "git_to": "git@gitlab/repo-1.git"
        },
        {
            "path": "git-sync-repo-2",
            "git_from": "git@bitbucket/repo-2.git",
            "git_to": "git@gitlab/repo-2.git"
        }
    ]
}